<?xml version="1.0" standalone="no"?>
<!DOCTYPE svg PUBLIC "-//W3C//DTD SVG 20010904//EN"
 "http://www.w3.org/TR/2001/REC-SVG-20010904/DTD/svg10.dtd">
<svg version="1.0" xmlns="http://www.w3.org/2000/svg"
 width="944.000000pt" height="944.000000pt" viewBox="0 0 944.000000 944.000000"
 preserveAspectRatio="xMidYMid meet">
<metadata>
Created by potrace 1.14, written by Peter Selinger 2001-2017
</metadata>
<g transform="translate(0.000000,944.000000) scale(0.100000,-0.100000)"
fill="#000000" stroke="none">
<path d="M2519 9428 c-1 -7 0 -17 1 -23 5 -27 5 -73 -1 -96 -4 -15 -3 -32 1
-40 5 -7 4 -21 -1 -31 -6 -12 -6 -18 0 -18 7 0 7 -8 1 -24 -5 -13 -6 -26 -4
-29 9 -8 10 -70 3 -98 -4 -15 -3 -32 1 -40 5 -7 4 -21 -1 -31 -6 -12 -6 -18 0
-18 7 0 7 -8 1 -24 -5 -13 -6 -26 -4 -29 9 -8 10 -70 3 -98 -4 -15 -3 -32 1
-40 5 -7 4 -21 -1 -31 -6 -12 -6 -18 0 -18 7 0 7 -8 1 -24 -5 -13 -6 -26 -4
-29 9 -8 10 -70 3 -98 -4 -15 -3 -32 1 -40 5 -7 4 -21 -1 -31 -6 -12 -6 -18 0
-18 7 0 7 -8 1 -24 -5 -13 -6 -26 -4 -29 9 -8 10 -70 3 -98 -4 -15 -3 -32 1
-40 5 -7 4 -21 -1 -31 -6 -12 -6 -18 0 -18 7 0 7 -8 1 -24 -5 -13 -6 -26 -4
-29 9 -8 10 -70 3 -98 -4 -15 -3 -32 1 -40 5 -7 4 -21 -1 -31 -6 -12 -6 -18 0
-18 7 0 7 -8 1 -24 -5 -13 -6 -26 -4 -29 9 -8 10 -70 3 -98 -4 -15 -3 -32 1
-40 5 -7 4 -21 -1 -31 -6 -12 -6 -18 0 -18 7 0 7 -8 1 -24 -5 -13 -6 -26 -4
-29 9 -8 10 -70 3 -98 -4 -15 -3 -32 1 -40 5 -7 4 -21 -1 -31 -6 -12 -6 -18 0
-18 7 0 7 -8 1 -24 -5 -13 -6 -26 -4 -29 9 -8 10 -70 3 -98 -4 -15 -3 -32 1
-40 5 -7 4 -21 -1 -31 -7 -12 -6 -18 1 -18 6 0 8 -5 5 -11 -4 -6 -13 -8 -21
-5 -7 3 -16 1 -19 -5 -4 -5 -11 -6 -17 -3 -8 5 -90 8 -110 4 -21 -4 -77 -3
-91 3 -9 3 -19 2 -22 -4 -4 -5 -11 -6 -17 -3 -8 5 -90 8 -110 4 -21 -4 -77 -3
-91 3 -9 3 -19 2 -22 -4 -4 -5 -13 -6 -22 -1 -8 5 -32 6 -52 2 -21 -4 -47 -3
-59 1 -12 5 -24 4 -27 -2 -4 -5 -11 -6 -17 -3 -8 5 -90 8 -110 4 -21 -4 -77
-3 -91 3 -9 3 -19 2 -22 -4 -4 -5 -11 -6 -17 -3 -8 5 -90 8 -110 4 -21 -4 -77
-3 -91 3 -9 3 -19 2 -22 -4 -4 -5 -13 -6 -22 -1 -8 5 -32 6 -52 2 -21 -4 -47
-3 -59 1 -12 5 -24 4 -27 -2 -4 -5 -11 -6 -17 -3 -8 5 -90 8 -110 4 -21 -4
-77 -3 -91 3 -9 3 -19 2 -22 -4 -4 -5 -11 -6 -17 -3 -8 5 -90 8 -110 4 -21 -4
-77 -3 -91 3 -9 3 -19 2 -22 -4 -4 -5 -13 -6 -22 -1 -8 5 -32 6 -52 2 -21 -4
-47 -3 -59 1 -12 5 -24 4 -27 -2 -4 -5 -11 -7 -16 -3 -13 8 -119 11 -119 4 0
-4 -16 -4 -35 -2 l-35 4 0 -2561 0 -2561 27 0 c16 1 51 0 78 0 28 -1 55 -1 60
0 17 3 78 1 108 -3 15 -3 30 -1 33 4 2 4 15 4 27 0 12 -5 34 -5 49 0 17 4 28
4 28 -2 0 -6 7 -6 18 -1 9 5 26 6 37 2 11 -4 29 -4 40 0 11 4 29 4 40 0 11 -4
33 -4 50 0 17 4 41 3 53 -1 12 -5 24 -4 27 2 4 5 13 6 22 1 8 -5 32 -6 52 -2
21 4 47 3 59 -1 12 -5 24 -4 27 2 4 5 11 6 17 3 9 -6 87 -8 113 -4 17 3 78 1
108 -3 15 -3 30 0 33 5 3 4 10 5 16 2 8 -5 139 -9 161 -4 20 4 76 3 90 -3 9
-3 19 -2 22 4 4 5 11 6 17 3 9 -6 87 -8 113 -4 28 5 62 4 82 -2 12 -4 25 -3
28 3 4 5 13 6 22 1 8 -5 32 -6 52 -2 21 4 47 3 59 -1 12 -5 24 -4 27 2 4 5 13
6 22 0 9 -5 28 -5 42 -1 14 4 35 4 46 0 11 -4 30 -4 41 1 12 4 24 5 27 2 5 -5
87 -7 112 -3 17 3 78 1 108 -3 15 -3 30 -1 33 4 2 4 15 4 27 0 12 -5 34 -5 49
0 17 4 28 4 28 -2 0 -6 7 -6 18 -1 9 5 26 6 37 2 11 -4 29 -4 40 0 11 4 29 4
40 0 11 -4 33 -4 50 0 17 4 41 3 53 -1 12 -5 24 -4 27 2 4 5 13 6 22 1 8 -5
32 -6 52 -2 21 4 47 3 59 -1 12 -5 24 -4 27 2 4 5 11 6 17 3 9 -6 87 -8 113
-4 17 3 78 1 108 -3 15 -3 30 0 33 5 3 4 10 5 16 2 8 -5 139 -9 161 -4 20 4
76 3 90 -3 9 -3 19 -2 22 4 4 5 11 6 17 3 9 -6 87 -8 113 -4 28 5 62 4 82 -2
12 -4 25 -3 28 3 4 5 13 6 22 1 8 -5 32 -6 52 -2 21 4 47 3 59 -1 12 -5 24 -4
27 2 4 5 13 6 22 0 9 -5 28 -5 42 -1 14 4 35 4 46 0 11 -4 30 -4 41 1 12 4 24
5 27 2 5 -5 87 -7 112 -3 17 3 78 1 108 -3 15 -3 30 -1 33 4 2 4 15 4 27 0 12
-5 34 -5 49 0 17 4 28 4 28 -2 0 -6 7 -6 18 -1 9 5 26 6 37 2 11 -4 29 -4 40
0 11 4 29 4 40 0 11 -4 33 -4 50 0 17 4 41 3 53 -1 12 -5 24 -4 27 2 4 5 13 6
22 1 8 -5 32 -6 52 -2 21 4 47 3 59 -1 12 -5 24 -4 27 2 4 5 13 6 22 1 8 -5
32 -6 52 -2 21 4 47 3 59 -1 12 -5 24 -4 27 2 4 5 13 6 22 1 8 -5 32 -6 52 -2
21 4 47 3 59 -1 12 -5 24 -4 27 2 4 5 13 6 22 0 9 -5 28 -5 42 -1 14 4 35 4
46 0 11 -4 30 -4 41 1 12 4 24 5 27 2 5 -5 87 -7 112 -3 17 3 78 1 108 -3 15
-3 30 -1 33 4 2 4 15 4 27 0 12 -5 34 -5 49 0 17 4 28 4 28 -2 0 -6 7 -6 18
-1 9 5 26 6 37 2 11 -4 29 -4 40 0 11 4 29 4 40 0 11 -4 33 -4 50 0 17 4 41 3
53 -1 12 -5 24 -4 27 2 4 5 13 6 22 1 8 -5 32 -6 52 -2 21 4 47 3 59 -1 12 -5
24 -4 27 2 4 5 11 6 17 3 9 -6 87 -8 113 -4 17 3 78 1 108 -3 15 -3 30 0 33 5
3 4 10 5 16 2 8 -5 135 -9 163 -4 6 1 28 1 50 1 61 -2 99 -1 103 4 4 4 4 95
-1 150 -1 17 1 42 4 56 4 15 3 32 -1 40 -5 7 -4 21 1 31 7 12 6 18 -1 18 -7 0
-8 6 -1 19 6 10 8 20 6 23 -3 2 -5 38 -5 79 0 41 0 83 0 94 0 11 0 34 1 50 1
39 1 46 -4 70 -2 11 -2 24 1 29 5 10 6 125 0 131 -4 5 -47 6 -125 4 -28 -1
-56 2 -62 6 -6 3 -11 1 -11 -5 0 -6 -5 -8 -11 -4 -11 6 -70 7 -134 1 -16 -1
-39 1 -51 4 -11 4 -27 4 -34 -1 -7 -4 -24 -5 -39 -1 -14 4 -37 5 -51 1 -14 -4
-35 -3 -47 1 -12 5 -25 4 -28 -1 -3 -5 -18 -5 -33 -1 -15 4 -38 5 -52 1 -14
-4 -35 -3 -47 1 -12 5 -25 4 -28 -1 -3 -5 -18 -5 -33 -1 -15 4 -38 5 -52 1
-14 -4 -35 -3 -47 1 -12 5 -25 4 -28 -1 -3 -5 -18 -5 -33 -1 -15 4 -38 5 -52
1 -14 -4 -35 -3 -47 1 -12 5 -25 4 -28 -1 -3 -5 -18 -5 -33 -1 -15 4 -38 5
-52 1 -14 -4 -35 -3 -47 1 -12 5 -25 4 -28 -1 -3 -5 -18 -5 -33 -1 -15 4 -38
5 -52 1 -14 -4 -35 -3 -47 1 -12 5 -25 4 -28 -1 -3 -5 -18 -5 -33 -1 -15 4
-38 5 -52 1 -14 -4 -35 -3 -47 1 -12 5 -25 4 -28 -1 -3 -5 -18 -5 -33 -1 -15
4 -38 5 -52 1 -14 -4 -35 -3 -47 1 -12 5 -25 4 -28 -1 -3 -5 -18 -5 -33 -1
-15 4 -38 5 -52 1 -14 -4 -35 -3 -47 1 -12 5 -25 4 -28 -1 -3 -5 -18 -5 -33
-1 -15 4 -38 5 -52 1 -14 -4 -35 -3 -47 1 -12 5 -25 4 -28 -1 -3 -5 -18 -5
-33 -1 -15 4 -38 5 -52 1 -14 -4 -35 -3 -47 1 -12 5 -25 4 -28 -1 -3 -5 -18
-5 -33 -1 -15 4 -38 5 -52 1 -14 -4 -35 -3 -47 1 -12 5 -25 4 -28 -1 -3 -5
-18 -5 -33 -1 -15 4 -38 5 -52 1 -14 -4 -35 -3 -47 1 -12 5 -25 4 -28 -1 -3
-5 -18 -5 -33 -1 -15 4 -38 5 -52 1 -14 -4 -35 -3 -47 1 -12 5 -25 4 -28 -1
-3 -5 -18 -5 -33 -1 -15 4 -38 5 -52 1 -14 -4 -35 -3 -47 1 -12 5 -25 4 -28
-1 -3 -5 -18 -5 -33 -1 -15 4 -38 5 -52 1 -14 -4 -35 -3 -47 1 -12 5 -25 4
-28 -1 -3 -5 -18 -5 -33 -1 -15 5 -36 5 -47 1 -11 -4 -29 -4 -41 0 -11 5 -27
4 -34 0 -8 -5 -18 -6 -23 -3 -5 3 -31 5 -58 4 -117 -3 -135 -3 -161 2 -15 3
-30 2 -33 -3 -3 -5 -15 -6 -28 -1 -12 5 -32 5 -44 0 -12 -4 -25 -5 -27 0 -3 4
-18 6 -34 3 -16 -2 -33 1 -37 7 -9 15 -10 135 -1 149 3 6 2 13 -4 17 -6 4 -7
12 -1 24 5 9 6 23 1 30 -4 8 -5 25 -1 40 3 14 5 40 4 56 -2 17 -3 44 -2 60 0
17 0 36 0 43 -1 15 -1 29 -2 117 0 38 -2 71 -4 74 -3 2 0 10 6 17 7 8 7 14 -1
19 -6 4 -7 12 -1 24 5 9 6 23 1 30 -4 8 -5 25 -1 40 3 14 5 40 4 56 -2 17 -3
44 -2 60 0 17 0 36 0 43 -1 15 -1 29 -2 117 0 38 -2 71 -4 74 -3 2 0 10 6 17
7 8 7 14 -1 19 -6 4 -7 12 -1 24 5 9 6 23 1 30 -4 8 -5 25 -1 40 3 14 5 40 4
56 -6 61 -5 134 2 144 3 6 2 11 -4 11 -6 0 -8 6 -5 13 8 22 11 116 3 128 -3 6
-3 25 0 43 4 17 4 42 1 56 -4 14 -3 37 1 53 4 15 4 27 -1 27 -5 0 -6 12 -2 28
4 15 6 45 5 67 -3 53 -4 69 -3 139 0 32 -2 61 -5 64 -3 3 0 11 6 18 7 8 7 14
-1 19 -6 4 -7 12 -1 24 5 9 6 23 1 30 -4 8 -5 25 -1 40 3 14 5 40 4 56 -2 17
-3 44 -2 60 0 17 0 36 0 43 -1 15 -1 29 -2 117 0 38 -2 71 -4 74 -3 2 0 10 6
17 7 8 7 14 -1 19 -6 4 -7 12 -1 24 5 9 6 23 1 30 -4 8 -5 25 -1 40 3 14 5 40
4 56 -2 17 -3 44 -2 60 0 27 0 49 -3 83 -1 11 -21 17 -43 12 -5 -1 -28 -1 -50
0 -56 2 -53 2 -125 1 -36 0 -72 0 -80 0 -8 1 -44 1 -80 0 -36 0 -72 0 -80 0
-8 0 -46 0 -85 0 -38 0 -77 0 -85 0 -148 3 -177 -3 -170 -36 5 -27 5 -73 -1
-96 -4 -15 -3 -32 1 -40 5 -7 4 -21 -1 -31 -6 -12 -6 -18 0 -18 7 0 7 -8 1
-24 -5 -13 -6 -26 -4 -29 9 -8 10 -70 3 -98 -4 -15 -3 -32 1 -40 5 -7 4 -21
-1 -31 -6 -12 -6 -18 0 -18 7 0 7 -8 1 -24 -5 -13 -6 -26 -4 -29 9 -8 10 -70
3 -98 -4 -15 -3 -32 1 -40 5 -7 4 -21 -1 -31 -6 -12 -6 -18 0 -18 7 0 7 -8 1
-24 -5 -13 -6 -26 -4 -29 9 -8 10 -70 3 -98 -4 -15 -3 -32 1 -40 5 -7 4 -21
-1 -31 -6 -12 -6 -18 0 -18 7 0 7 -8 1 -24 -5 -13 -6 -26 -4 -29 9 -8 10 -70
3 -98 -4 -15 -3 -32 1 -40 5 -7 4 -21 -1 -31 -6 -12 -6 -18 0 -18 7 0 7 -8 1
-24 -5 -13 -6 -26 -4 -29 9 -8 10 -70 3 -98 -4 -15 -3 -32 1 -40 5 -7 4 -21
-1 -31 -7 -12 -6 -18 1 -18 7 0 8 -6 1 -19 -6 -10 -8 -20 -6 -23 3 -2 5 -38 5
-79 0 -41 0 -82 0 -91 0 -31 0 -64 -1 -113 0 -16 0 -37 0 -45 0 -8 1 -46 0
-85 0 -38 0 -76 1 -82 0 -18 0 -52 -1 -108 0 -16 0 -37 0 -45 0 -8 1 -46 0
-85 0 -38 0 -76 1 -82 0 -18 0 -52 -1 -108 0 -16 0 -37 0 -45 3 -95 2 -151 -3
-158 -2 -4 -1 -14 4 -22 5 -8 5 -21 1 -29 -5 -9 -5 -25 -1 -36 4 -11 4 -32 0
-46 -4 -15 -4 -32 0 -40 5 -7 5 -20 1 -28 -5 -9 -5 -25 -1 -36 11 -30 0 -55
-24 -55 -111 1 -143 1 -153 0 -21 0 -40 0 -95 0 -29 0 -74 -1 -100 -1 -25 -1
-51 2 -57 6 -6 3 -11 1 -11 -5 0 -6 -5 -8 -11 -4 -6 4 -34 6 -63 5 -28 -1 -69
-1 -91 -1 -22 0 -46 0 -52 0 -23 0 -42 0 -95 0 -29 0 -74 -1 -100 -1 -25 -1
-51 2 -57 6 -6 3 -11 1 -11 -5 0 -6 -5 -8 -11 -4 -11 6 -70 7 -134 1 -16 -1
-39 1 -51 4 -11 4 -27 4 -34 -1 -7 -4 -24 -5 -39 -1 -14 4 -37 5 -51 1 -14 -4
-34 -3 -46 1 -11 4 -27 3 -34 -1 -40 -25 -40 -16 -41 749 0 405 0 745 0 756 0
11 0 85 0 165 0 80 0 152 0 160 0 8 0 80 0 160 0 80 0 152 0 160 0 8 0 80 0
160 0 80 0 152 0 160 0 8 0 237 0 508 0 271 0 496 0 500 -3 19 2 45 7 39 4 -3
14 -2 23 3 10 5 23 5 30 1 7 -5 29 -5 50 -1 21 4 47 3 59 -1 12 -5 24 -4 27 2
4 5 11 7 16 3 9 -5 34 -6 156 -3 28 1 56 -2 62 -6 6 -3 11 -1 11 5 0 6 5 8 11
4 11 -6 28 -6 153 -3 24 1 48 -1 54 -5 6 -3 13 -2 16 3 4 5 18 6 34 2 15 -4
38 -5 52 -1 14 4 35 3 47 -1 13 -5 25 -4 28 2 4 5 11 7 16 3 9 -5 34 -6 156
-3 28 1 56 -2 62 -6 6 -3 11 -1 11 5 0 6 5 8 11 4 11 -6 28 -6 153 -3 24 1 48
-1 54 -5 6 -3 13 -2 16 3 4 5 18 6 34 2 15 -5 36 -5 47 -1 11 4 29 4 41 0 11
-5 27 -5 34 0 7 4 24 4 39 0 14 -4 35 -4 46 0 11 4 29 4 41 0 11 -5 27 -5 34
0 7 4 24 5 39 1 14 -4 37 -5 51 -1 14 4 35 3 47 -1 13 -5 25 -4 28 2 4 5 11 7
16 3 9 -5 34 -6 156 -3 28 1 56 -2 62 -6 6 -3 11 -1 11 5 0 6 5 8 11 4 11 -6
28 -6 153 -3 24 1 48 -1 54 -5 6 -3 13 -2 16 3 4 5 18 6 34 2 15 -5 36 -5 47
-1 11 4 29 4 41 0 11 -5 27 -5 34 0 7 4 24 4 39 0 14 -4 35 -4 46 0 11 4 29 4
41 0 11 -5 27 -4 34 0 8 5 18 6 22 4 8 -5 35 -6 155 -3 28 1 56 -2 62 -6 6 -3
11 -1 11 5 0 6 5 8 11 4 13 -8 107 -9 115 -1 3 3 18 1 34 -3 16 -4 31 -6 34
-3 8 8 102 7 115 -1 6 -4 11 -2 11 4 0 6 5 8 11 4 11 -6 70 -7 134 -1 17 1 39
-1 51 -4 11 -4 27 -4 34 1 7 4 24 4 39 0 14 -4 35 -4 46 0 11 4 29 4 41 0 11
-5 27 -5 34 0 7 4 24 5 39 1 14 -4 37 -5 51 -1 14 4 35 3 47 -1 13 -5 25 -4
28 2 4 5 11 7 16 3 9 -5 34 -6 156 -3 28 1 56 -2 62 -6 6 -3 11 -1 11 5 0 6 5
8 11 4 11 -6 28 -6 153 -3 24 1 48 -1 54 -5 6 -3 13 -2 16 3 4 5 18 6 34 2 15
-5 36 -5 47 -1 11 4 29 4 41 0 11 -5 27 -5 34 0 7 4 24 4 39 0 14 -4 35 -4 46
0 11 4 29 4 41 0 11 -5 27 -4 34 0 8 5 18 6 22 4 8 -5 35 -6 155 -3 28 1 56
-2 62 -6 6 -3 11 -1 11 5 0 6 5 8 11 4 13 -8 107 -9 115 -1 3 3 18 1 34 -3 16
-4 31 -6 34 -3 8 8 102 7 115 -1 6 -4 11 -2 11 4 0 6 5 8 11 4 11 -6 70 -7
134 -1 17 1 39 -1 51 -4 11 -4 27 -4 34 1 7 4 24 4 39 0 14 -4 35 -4 46 0 11
4 29 4 41 0 11 -5 27 -5 34 0 7 4 24 5 39 1 14 -4 37 -5 51 -1 14 4 35 3 47
-1 12 -5 25 -4 28 1 3 5 18 5 34 0 15 -4 34 -4 41 0 7 4 20 5 31 3 18 -5 20 0
18 67 0 14 0 31 0 38 3 68 2 144 -2 148 -3 3 -1 19 3 35 5 16 5 29 0 29 -5 0
-5 12 -1 28 4 15 4 39 0 54 -4 15 -5 29 -2 32 7 7 7 136 0 142 -3 3 -1 19 3
35 5 18 5 29 -1 29 -6 0 -7 4 -4 10 6 9 8 63 6 121 -1 24 -5 26 -47 28 -26 0
-50 4 -54 6 -5 3 -11 1 -15 -5 -4 -6 -12 -7 -22 -1 -9 5 -28 5 -42 1 -14 -4
-35 -4 -46 0 -11 4 -27 4 -36 -1 -8 -4 -21 -4 -28 0 -7 5 -27 5 -45 1 -17 -4
-40 -4 -51 0 -11 4 -30 4 -41 -1 -12 -4 -24 -5 -27 -3 -5 5 -92 8 -109 4 -20
-4 -77 -3 -91 3 -9 3 -19 2 -22 -4 -4 -5 -11 -6 -17 -3 -12 8 -106 9 -114 2
-3 -3 -21 -2 -40 2 -18 4 -34 5 -34 1 0 -8 -85 -5 -99 3 -5 4 -12 2 -16 -4 -4
-6 -11 -7 -17 -4 -9 6 -89 8 -113 4 -26 -5 -42 -5 -61 1 -11 4 -27 3 -35 -1
-8 -5 -21 -5 -28 -1 -7 5 -27 5 -45 1 -17 -4 -40 -4 -51 0 -11 4 -29 4 -40 0
-11 -4 -29 -4 -40 0 -11 4 -33 4 -50 0 -17 -4 -41 -3 -53 1 -12 5 -24 4 -27
-2 -4 -5 -11 -6 -17 -3 -8 5 -90 8 -110 4 -21 -4 -77 -3 -91 3 -9 3 -19 2 -22
-4 -4 -5 -11 -6 -17 -3 -8 5 -90 8 -110 4 -21 -4 -77 -3 -91 3 -9 3 -19 2 -22
-4 -4 -5 -13 -6 -22 0 -9 5 -28 5 -42 1 -14 -4 -35 -4 -46 0 -11 4 -27 4 -36
-1 -8 -4 -21 -4 -28 0 -7 5 -27 5 -45 1 -17 -4 -40 -4 -51 0 -11 4 -30 4 -41
-1 -12 -4 -24 -5 -27 -3 -5 5 -92 8 -109 4 -20 -4 -77 -3 -91 3 -9 3 -19 2
-22 -4 -4 -5 -11 -6 -17 -3 -12 8 -106 9 -114 2 -3 -3 -21 -2 -40 2 -18 4 -34
5 -34 1 0 -8 -85 -5 -99 3 -5 4 -12 2 -16 -4 -4 -6 -11 -7 -17 -4 -9 6 -89 8
-113 4 -26 -5 -42 -5 -61 1 -11 4 -27 3 -35 -1 -8 -5 -21 -5 -28 -1 -7 5 -27
5 -45 1 -17 -4 -40 -4 -51 0 -11 4 -29 4 -40 0 -11 -4 -29 -4 -40 0 -11 4 -33
4 -50 0 -17 -4 -41 -3 -53 1 -12 5 -24 4 -27 -2 -4 -5 -11 -6 -17 -3 -5 4 -34
7 -63 7 l-52 0 7 31 c4 17 4 40 0 51 -4 11 -4 32 1 48 4 15 4 27 -1 27 -4 0
-5 12 -1 27 4 14 4 48 1 74 -4 27 -2 53 3 58 5 5 4 11 -2 15 -7 5 -8 13 -2 25
5 9 6 23 1 30 -4 8 -5 25 -1 40 3 14 5 40 4 56 -2 17 -3 44 -2 60 0 17 0 36 0
43 -1 15 -1 29 -2 117 0 38 -2 71 -4 74 -3 2 0 10 6 17 7 8 7 14 -1 19 -6 4
-7 12 -1 24 5 9 6 23 1 30 -4 8 -5 25 -1 40 3 14 5 40 4 56 -2 17 -3 44 -2 60
0 17 0 36 0 43 -1 15 -1 29 -2 117 0 38 -2 71 -4 74 -3 2 0 10 6 17 6 8 6 14
0 18 -5 3 -6 18 -2 34 l7 27 195 2 c107 1 250 2 319 2 69 0 186 1 260 2 74 0
142 1 150 0 8 0 368 0 800 0 432 0 792 0 800 0 8 0 80 0 160 0 80 1 157 0 173
0 15 -1 139 -3 275 -5 136 -3 263 -7 282 -10 19 -3 51 -7 70 -10 67 -9 244
-57 325 -89 44 -17 82 -32 85 -33 14 -3 106 -48 110 -53 3 -3 30 -19 60 -35
202 -107 424 -310 576 -526 52 -74 134 -218 134 -234 0 -9 5 -16 11 -16 5 0 7
-4 4 -10 -3 -5 -3 -10 2 -10 4 0 13 -15 20 -32 6 -18 27 -77 47 -132 19 -54
37 -110 40 -125 3 -14 12 -57 20 -96 26 -121 34 -215 30 -375 -1 -85 -5 -168
-7 -185 -6 -41 -18 -116 -24 -140 -2 -11 -6 -31 -9 -45 -19 -95 -119 -365
-144 -390 -3 -3 -16 -29 -29 -57 -14 -29 -27 -53 -30 -53 -3 0 -12 -12 -19
-27 -26 -59 -150 -213 -258 -320 -61 -62 -117 -113 -123 -113 -6 0 -11 -3 -11
-7 0 -5 -24 -24 -53 -43 -28 -19 -54 -38 -57 -41 -8 -10 -118 -79 -125 -79 -4
0 -20 -9 -36 -21 -16 -11 -29 -17 -29 -12 0 4 -4 3 -8 -2 -4 -6 -18 -15 -32
-22 -61 -27 -120 -53 -124 -53 -3 0 -17 -5 -33 -12 -15 -6 -31 -12 -35 -13 -5
-2 -10 -4 -13 -5 -6 -3 -10 -4 -50 -14 -16 -4 -37 -10 -45 -14 -8 -3 -19 -7
-25 -8 -5 -1 -12 -3 -15 -4 -3 -1 -16 -3 -30 -6 -14 -2 -47 -9 -75 -14 -96
-18 -121 -21 -212 -25 -51 -2 -97 -6 -103 -10 -5 -3 -10 -2 -10 4 0 6 -11 6
-30 1 -19 -5 -30 -5 -30 1 0 6 -4 7 -10 4 -15 -9 -91 -12 -96 -3 -3 4 -16 3
-29 -2 -16 -6 -25 -6 -25 0 0 6 -9 6 -22 1 -13 -4 -34 -5 -48 -1 -14 4 -35 3
-47 -1 -14 -5 -23 -5 -23 2 0 6 -6 6 -18 0 -10 -5 -24 -6 -31 -1 -8 4 -27 4
-42 0 -16 -5 -31 -5 -34 0 -3 5 -16 5 -30 0 -16 -6 -25 -6 -25 0 0 6 -9 6 -22
1 -13 -4 -34 -5 -48 -1 -14 4 -35 3 -47 -1 -14 -5 -23 -5 -23 2 0 6 -6 6 -18
0 -10 -5 -24 -6 -32 -1 -8 5 -21 5 -30 0 -9 -5 -23 -4 -32 1 -10 6 -19 6 -22
0 -4 -5 -18 -6 -34 -2 -15 5 -37 4 -50 0 -13 -5 -22 -4 -22 1 0 6 -9 6 -25 0
-16 -6 -25 -6 -25 0 0 6 -9 6 -25 0 -13 -5 -26 -6 -29 -2 -5 8 -58 8 -72 0 -5
-3 -18 -2 -29 2 -11 4 -30 4 -42 -1 -15 -5 -23 -5 -23 2 0 6 -7 6 -17 1 -20
-9 -54 -8 -71 2 -6 3 -13 2 -17 -3 -4 -7 -15 -7 -30 -1 -14 5 -25 6 -25 2 0
-4 -18 -7 -40 -7 -22 0 -40 3 -40 7 0 4 -11 3 -25 -2 -16 -6 -25 -6 -25 0 0 6
-9 6 -24 0 -15 -5 -27 -5 -34 2 -7 7 -16 6 -30 -1 -15 -8 -23 -8 -27 -1 -4 7
-11 7 -18 2 -7 -5 -21 -6 -32 -2 -11 4 -30 3 -43 -1 -14 -5 -31 -5 -41 1 -10
5 -21 6 -25 3 -4 -4 -22 -6 -41 -5 -18 1 -36 -2 -40 -8 -3 -5 -2 -10 3 -10 5
0 8 -12 5 -27 -2 -16 -3 -56 -3 -90 0 -35 1 -71 0 -80 0 -98 2 -158 5 -162 3
-2 0 -10 -6 -17 -7 -8 -7 -14 1 -19 6 -4 7 -12 1 -24 -5 -9 -6 -23 -1 -30 4
-8 5 -25 1 -40 -7 -26 -6 -80 2 -88 3 -2 1 -18 -3 -36 -4 -18 -4 -41 0 -52 4
-10 3 -36 0 -57 -5 -26 -3 -41 6 -49 15 -12 135 -16 153 -5 6 4 11 2 11 -4 0
-7 6 -8 18 -1 10 6 24 6 32 1 8 -5 18 -6 24 -3 14 9 67 9 73 0 2 -4 13 -3 23
3 13 7 21 7 25 0 4 -6 13 -7 23 -1 11 6 24 6 35 0 11 -7 17 -7 17 0 0 6 11 7
28 2 15 -4 39 -4 55 0 15 4 27 3 27 -2 0 -5 10 -5 23 0 12 4 33 5 47 1 14 -4
35 -3 48 1 13 5 22 5 22 -1 0 -6 9 -6 25 0 15 6 26 6 30 0 4 -6 13 -7 23 -1
11 6 24 6 34 0 10 -6 19 -6 22 0 4 5 18 6 34 2 15 -5 37 -4 50 0 13 5 22 4 22
-1 0 -6 9 -6 25 0 15 6 26 6 30 0 4 -6 13 -7 23 -1 11 6 24 6 34 0 10 -6 19
-6 22 0 4 5 18 6 34 2 15 -5 37 -4 50 0 13 5 22 4 22 -1 0 -6 9 -6 25 0 15 6
26 6 30 0 4 -6 13 -7 23 -1 11 6 24 6 34 0 10 -6 19 -6 22 0 4 5 18 6 34 2 15
-5 37 -4 50 0 13 5 22 4 22 -1 0 -6 9 -6 25 0 15 6 26 6 30 0 4 -6 13 -7 23
-1 11 6 24 6 34 0 10 -6 19 -6 23 0 3 6 12 8 19 5 22 -8 97 -10 102 -2 3 4 16
3 29 -2 15 -6 25 -6 25 0 0 5 12 5 30 0 17 -5 30 -6 30 -2 0 4 14 7 30 7 17 0
30 -2 30 -5 0 -3 33 -5 73 -6 285 -2 622 -107 870 -271 40 -27 76 -50 81 -52
6 -2 20 -15 33 -27 13 -13 28 -24 33 -24 13 0 251 -238 286 -285 16 -22 31
-42 34 -45 32 -32 170 -264 170 -286 0 -8 4 -14 9 -14 5 0 12 -10 16 -22 3
-13 14 -43 25 -68 21 -52 32 -81 35 -95 1 -5 10 -31 18 -57 9 -26 19 -57 21
-70 3 -13 7 -33 10 -46 12 -45 20 -90 33 -177 15 -101 7 -423 -12 -508 -3 -12
-7 -34 -10 -49 -12 -67 -16 -85 -26 -116 -6 -18 -12 -39 -13 -45 -3 -13 -5
-19 -43 -122 -126 -343 -389 -661 -717 -869 -106 -68 -339 -176 -378 -176 -8
0 -19 -5 -26 -12 -7 -7 -12 -9 -12 -5 0 3 -18 0 -39 -8 -22 -7 -54 -16 -73
-19 -18 -3 -43 -8 -55 -11 -13 -3 -31 -7 -40 -9 -17 -4 -125 -16 -184 -21 -15
-1 -32 -5 -38 -9 -6 -4 -11 -4 -11 1 0 4 -26 7 -57 6 -70 -2 -148 -3 -488 -3
-143 0 -297 -1 -343 -3 -45 -1 -82 0 -82 3 0 3 -33 4 -72 3 -148 -3 -177 -4
-362 -3 -103 0 -192 -3 -197 -6 -5 -3 -9 -2 -9 3 0 4 -33 7 -72 6 -40 -1 -95
-2 -123 -3 -43 -1 -422 -1 -692 0 -46 0 -130 0 -188 -1 -58 0 -113 0 -122 0
-427 1 -473 2 -467 12 3 6 6 34 5 62 -1 29 -1 63 0 77 0 14 0 31 0 38 -2 20
-2 34 -2 102 1 36 1 74 1 85 0 114 -2 160 -5 164 -3 2 0 10 6 17 7 8 7 14 -1
19 -6 4 -7 12 -1 24 5 9 6 23 1 30 -4 8 -5 25 0 40 8 30 3 54 -11 45 -5 -3 -9
-1 -9 5 0 7 -8 7 -25 1 -13 -5 -27 -6 -29 -1 -3 4 -26 5 -51 1 -25 -4 -48 -3
-51 1 -2 5 -16 4 -29 -1 -14 -5 -25 -6 -25 -2 0 7 -41 7 -138 -1 -24 -1 -46 1
-48 5 -3 4 -16 3 -29 -2 -14 -5 -25 -6 -25 -2 0 7 -41 7 -138 -1 -24 -1 -46 1
-48 5 -3 4 -16 3 -29 -2 -17 -6 -25 -6 -25 1 0 6 -4 8 -10 4 -5 -3 -25 -6 -45
-7 -33 -1 -40 -8 -35 -33 5 -27 5 -73 -1 -96 -4 -15 -3 -32 1 -40 5 -7 4 -21
-1 -31 -6 -12 -6 -18 0 -18 7 0 7 -8 1 -24 -5 -13 -6 -26 -4 -29 9 -8 10 -70
3 -98 -4 -15 -3 -32 1 -40 5 -7 4 -21 -1 -31 -6 -12 -6 -18 0 -18 7 0 7 -8 1
-24 -5 -13 -6 -26 -4 -29 9 -8 10 -70 3 -98 -4 -15 -3 -32 1 -40 5 -7 4 -21
-1 -31 -6 -12 -6 -18 0 -18 7 0 7 -8 1 -24 -5 -13 -6 -26 -4 -29 9 -8 10 -70
3 -98 -4 -15 -3 -32 1 -40 5 -7 4 -21 -1 -31 -6 -12 -6 -18 0 -18 7 0 7 -8 1
-24 -5 -13 -6 -26 -4 -29 9 -8 10 -70 3 -98 -4 -15 -3 -32 1 -40 5 -7 4 -21
-1 -31 -6 -12 -6 -18 0 -18 7 0 7 -8 1 -24 -5 -13 -6 -26 -4 -29 9 -8 10 -70
3 -98 -4 -15 -3 -32 1 -40 5 -7 4 -21 -1 -31 -7 -12 -6 -18 1 -18 7 0 8 -6 3
-15 -5 -8 -7 -31 -5 -50 l4 -36 2122 5 c1166 2 2138 5 2158 7 21 2 38 6 38 9
0 3 18 6 40 7 44 3 49 4 180 31 52 11 106 25 120 30 14 5 30 10 35 11 6 1 28
7 50 13 22 6 45 12 50 14 13 3 138 50 190 72 128 53 415 211 423 233 2 5 9 9
16 9 7 0 23 9 36 20 13 11 26 20 29 20 3 0 17 10 31 22 14 13 43 36 65 53 62
46 63 47 210 192 78 76 154 155 170 177 17 21 40 50 53 65 51 59 198 289 257
404 59 115 148 325 166 392 4 17 19 73 33 125 15 52 29 110 32 129 3 18 8 43
10 55 29 139 39 261 39 461 0 166 -6 281 -20 362 -20 126 -25 151 -41 218 -8
33 -17 71 -20 85 -8 42 -83 262 -104 307 -11 24 -20 45 -20 48 0 8 -104 219
-110 225 -3 3 -21 32 -39 65 -29 51 -97 157 -123 190 -4 6 -36 46 -70 90 -79
102 -103 129 -213 238 -96 96 -263 234 -356 295 -32 20 -58 40 -59 43 0 3 17
15 38 28 55 33 167 116 203 150 9 9 36 32 60 51 53 43 165 154 241 241 75 84
208 261 208 277 0 6 4 12 8 12 9 0 44 56 42 66 -1 4 3 10 8 13 20 13 131 228
174 336 11 28 26 64 33 80 32 71 104 328 119 425 3 19 8 46 11 60 41 218 42
604 0 845 -2 11 -4 20 -5 20 -1 0 -4 14 -6 30 -2 17 -9 50 -15 75 -6 25 -12
52 -14 60 -49 245 -232 642 -403 875 -126 172 -293 352 -441 475 -29 25 -63
53 -74 63 -12 10 -60 44 -107 75 -47 31 -86 60 -88 65 -2 4 -7 7 -12 7 -4 0
-38 18 -75 40 -129 79 -394 200 -438 200 -9 0 -17 5 -17 10 0 6 -7 10 -15 10
-8 0 -41 9 -72 20 -32 10 -69 21 -83 24 -14 2 -52 11 -85 19 -33 9 -75 19 -92
22 -18 3 -48 8 -65 11 -18 3 -46 7 -63 10 -16 3 -46 7 -65 10 -19 4 -992 8
-2162 10 -1725 4 -2128 2 -2129 -8z"/>
</g>
</svg>
